{"content":[{"id":1,"nombre":"Camelo","apellidos":"Coton","edad":37,"telefono":["123 424 435","555 000 111"]},{"id":2,"nombre":"Pepito","apellidos":"Grillo","edad":67},{"id":3,"nombre":"Pierre","apellidos":"Nodoiuna","edad":55},{"id":4,"nombre":"Capitan","apellidos":"Tan","edad":18},{"id":5,"nombre":"Alice","apellidos":"Knight","correo":"pellentesque@Aliquam.ca","telefono":["989 622 809"],"edad":18},{"id":6,"nombre":"Maite","apellidos":"Golden","correo":"feugiat.non@Quisque.co.uk","telefono":["982 600 405"],"edad":54},{"id":7,"nombre":"Serina","apellidos":"Rasmussen","correo":"luctus@mi.edu","telefono":["948 679 951"],"edad":44},{"id":8,"nombre":"Maisie","apellidos":"Townsend","correo":"sed.consequat@Loremipsumdolor.org","telefono":["955 182 130"],"edad":54},{"id":9,"nombre":"Adria","apellidos":"Gentry","correo":"in.consequat@gravidanonsollicitudin.net","telefono":["989 656 812"],"edad":26},{"id":10,"nombre":"Ira","apellidos":"Wilcox","correo":"velit.Sed@Proinnon.org","telefono":["957 056 412"],"edad":31},{"id":11,"nombre":"Wilma","apellidos":"Conner","correo":"dolor.sit@Duis.com","telefono":["959 072 497"],"edad":27},{"id":12,"nombre":"Cassady","apellidos":"Ashley","correo":"ipsum.dolor@enim.edu","telefono":["991 562 561"],"edad":30},{"id":13,"nombre":"Isadora","apellidos":"Mendoza","correo":"diam.Proin.dolor@accumsannequeet.edu","telefono":["927 521 517"],"edad":24},{"id":14,"nombre":"Tamara","apellidos":"Davis","correo":"dui@pedeSuspendissedui.co.uk","telefono":["966 895 055"],"edad":63},{"id":15,"nombre":"Eleanor","apellidos":"Wilder","correo":"arcu@viverra.com","telefono":["953 023 261"],"edad":27},{"id":16,"nombre":"Nerea","apellidos":"Valencia","correo":"urna.Ut@convallisconvallisdolor.com","telefono":["955 039 451"],"edad":59},{"id":17,"nombre":"Jared","apellidos":"Reid","correo":"vitae.posuere.at@cursusluctusipsum.co.uk","telefono":["915 397 720"],"edad":29},{"id":18,"nombre":"Brianna","apellidos":"Horn","correo":"commodo.ipsum@ligulaeuenim.ca","telefono":["906 222 203"],"edad":66},{"id":19,"nombre":"Amethyst","apellidos":"Luna","correo":"purus.gravida@idrisus.com","telefono":["913 415 191"],"edad":19},{"id":20,"nombre":"Mannix","apellidos":"Parker","correo":"in@imperdieteratnonummy.co.uk","telefono":["967 850 707"],"edad":23}],"totalElements":100,"totalPages":5,"number":1,"size":20,"empty":false,"first":true,"last":false,"numberOfElements":20}